{
  "meta": null,
  "content": [
    {
      "type": "text",
      "text": "{\"dashboards\":[{\"id\":1,\"dashboard_title\":\"World Bank's Data\",\"slug\":\"world_health\",\"description\":null,\"css\":null,\"certified_by\":null,\"certification_details\":null,\"json_metadata\":null,\"position_json\":null,\"published\":true,\"is_managed_externally\":null,\"external_url\":null,\"created_on\":\"2025-07-30T15:44:51.197944\",\"changed_on\":\"2025-07-30T15:48:20.021408\",\"created_by\":null,\"changed_by\":null,\"uuid\":\"e6619f02-33fb-41d0-9fa4-82da715a60cb\",\"url\":null,\"thumbnail_url\":null,\"created_on_humanized\":null,\"changed_on_humanized\":null,\"chart_count\":0,\"owners\":[],\"tags\":[],\"roles\":[],\"charts\":[]},{\"id\":2,\"dashboard_title\":\"USA Births Names\",\"slug\":\"births\",\"description\":null,\"css\":null,\"certified_by\":null,\"certification_details\":null,\"json_metadata\":null,\"position_json\":null,\"published\":true,\"is_managed_externally\":null,\"external_url\":null,\"created_on\":\"2025-07-30T15:44:55.179929\",\"changed_on\":\"2025-07-30T15:48:20.072668\",\"created_by\":null,\"changed_by\":null,\"uuid\":\"74892b32-bc3e-4df7-b4ba-948275ebc7cd\",\"url\":null,\"thumbnail_url\":null,\"created_on_humanized\":null,\"changed_on_humanized\":null,\"chart_count\":0,\"owners\":[],\"tags\":[],\"roles\":[],\"charts\":[]},{\"id\":3,\"dashboard_title\":\"Misc Charts\",\"slug\":\"misc_charts\",\"description\":null,\"css\":null,\"certified_by\":null,\"certification_details\":null,\"json_metadata\":null,\"position_json\":null,\"published\":false,\"is_managed_externally\":null,\"external_url\":null,\"created_on\":\"2025-07-30T15:45:02.114617\",\"changed_on\":\"2025-07-30T15:48:20.112257\",\"created_by\":null,\"changed_by\":null,\"uuid\":\"43220538-886c-4fc9-b2f2-560799712442\",\"url\":null,\"thumbnail_url\":null,\"created_on_humanized\":null,\"changed_on_humanized\":null,\"chart_count\":0,\"owners\":[],\"tags\":[],\"roles\":[],\"charts\":[]},{\"id\":4,\"dashboard_title\":\"deck.gl Demo\",\"slug\":\"deck\",\"description\":null,\"css\":null,\"certified_by\":null,\"certification_details\":null,\"json_metadata\":null,\"position_json\":null,\"published\":true,\"is_managed_externally\":null,\"external_url\":null,\"created_on\":\"2025-07-30T15:45:02.128134\",\"changed_on\":\"2025-07-30T15:48:20.131213\",\"created_by\":null,\"changed_by\":null,\"uuid\":\"71ca9b4e-93b1-4e43-bcc9-cc04595e730f\",\"url\":null,\"thumbnail_url\":null,\"created_on_humanized\":null,\"changed_on_humanized\":null,\"chart_count\":0,\"owners\":[],\"tags\":[],\"roles\":[],\"charts\":[]},{\"id\":5,\"dashboard_title\":\"COVID Vaccine Dashboard\",\"slug\":null,\"description\":null,\"css\":null,\"certified_by\":null,\"certification_details\":null,\"json_metadata\":null,\"position_json\":null,\"published\":true,\"is_managed_externally\":null,\"external_url\":null,\"created_on\":\"2025-07-30T15:45:41.228238\",\"changed_on\":\"2025-07-30T15:48:20.864351\",\"created_by\":null,\"changed_by\":null,\"uuid\":\"f4065089-110a-41fa-8dd7-9ce98a65e250\",\"url\":null,\"thumbnail_url\":null,\"created_on_humanized\":null,\"changed_on_humanized\":null,\"chart_count\":0,\"owners\":[],\"tags\":[],\"roles\":[],\"charts\":[]},{\"id\":6,\"dashboard_title\":\"Slack Dashboard\",\"slug\":null,\"description\":null,\"css\":null,\"certified_by\":null,\"certification_details\":null,\"json_metadata\":null,\"position_json\":null,\"published\":true,\"is_managed_externally\":null,\"external_url\":null,\"created_on\":\"2025-07-30T15:45:41.229156\",\"changed_on\":\"2025-07-30T15:48:20.865284\",\"created_by\":null,\"changed_by\":null,\"uuid\":\"9726d8b0-222f-eb2c-034a-02b9f51ef5fd\",\"url\":null,\"thumbnail_url\":null,\"created_on_humanized\":null,\"changed_on_humanized\":null,\"chart_count\":0,\"owners\":[],\"tags\":[],\"roles\":[],\"charts\":[]},{\"id\":7,\"dashboard_title\":\"Featured Charts\",\"slug\":null,\"description\":null,\"css\":null,\"certified_by\":null,\"certification_details\":null,\"json_metadata\":null,\"position_json\":null,\"published\":true,\"is_managed_externally\":null,\"external_url\":null,\"created_on\":\"2025-07-30T15:45:41.230159\",\"changed_on\":\"2025-07-30T15:48:20.866562\",\"created_by\":null,\"changed_by\":null,\"uuid\":\"9992d759-90d7-4d2a-b34d-373a8aaa9889\",\"url\":null,\"thumbnail_url\":null,\"created_on_humanized\":null,\"changed_on_humanized\":null,\"chart_count\":0,\"owners\":[],\"tags\":[],\"roles\":[],\"charts\":[]},{\"id\":8,\"dashboard_title\":\"Unicode Test\",\"slug\":\"unicode-test\",\"description\":null,\"css\":null,\"certified_by\":null,\"certification_details\":null,\"json_metadata\":null,\"position_json\":null,\"published\":true,\"is_managed_externally\":null,\"external_url\":null,\"created_on\":\"2025-07-30T15:45:41.231342\",\"changed_on\":\"2025-07-30T15:48:20.867818\",\"created_by\":null,\"changed_by\":null,\"uuid\":\"6b2de44e-7db1-4264-bfc1-ac3c00d42fad\",\"url\":null,\"thumbnail_url\":null,\"created_on_humanized\":null,\"changed_on_humanized\":null,\"chart_count\":0,\"owners\":[],\"tags\":[],\"roles\":[],\"charts\":[]},{\"id\":9,\"dashboard_title\":\"Sales Dashboard\",\"slug\":null,\"description\":null,\"css\":null,\"certified_by\":null,\"certification_details\":null,\"json_metadata\":null,\"position_json\":null,\"published\":true,\"is_managed_externally\":null,\"external_url\":null,\"created_on\":\"2025-07-30T15:45:41.232235\",\"changed_on\":\"2025-07-30T15:48:20.868752\",\"created_by\":null,\"changed_by\":null,\"uuid\":\"04f79081-fb49-7bac-7f14-cc76cd2ad93b\",\"url\":null,\"thumbnail_url\":null,\"created_on_humanized\":null,\"changed_on_humanized\":null,\"chart_count\":0,\"owners\":[],\"tags\":[],\"roles\":[],\"charts\":[]},{\"id\":10,\"dashboard_title\":\"Video Game Sales\",\"slug\":null,\"description\":null,\"css\":null,\"certified_by\":null,\"certification_details\":null,\"json_metadata\":null,\"position_json\":null,\"published\":true,\"is_managed_externally\":null,\"external_url\":null,\"created_on\":\"2025-07-30T15:45:41.233075\",\"changed_on\":\"2025-07-30T15:48:20.869533\",\"created_by\":null,\"changed_by\":null,\"uuid\":\"c7bc10f4-6a2d-7569-caae-bbc91864ee11\",\"url\":null,\"thumbnail_url\":null,\"created_on_humanized\":null,\"changed_on_humanized\":null,\"chart_count\":0,\"owners\":[],\"tags\":[],\"roles\":[],\"charts\":[]}],\"count\":10,\"total_count\":34,\"page\":0,\"page_size\":10,\"total_pages\":4,\"has_previous\":false,\"has_next\":true,\"columns_requested\":[\"id\",\"dashboard_title\",\"slug\",\"published\",\"changed_on\",\"created_on\",\"uuid\"],\"columns_loaded\":[\"id\",\"dashboard_title\",\"slug\",\"published\",\"changed_on\",\"created_on\",\"uuid\"],\"filters_applied\":[],\"pagination\":{\"page\":0,\"page_size\":10,\"total_count\":34,\"total_pages\":4,\"has_next\":true,\"has_previous\":false},\"timestamp\":\"2025-08-01T02:05:42.912630Z\"}",
      "annotations": null,
      "meta": null
    }
  ],
  "structuredContent": {
    "dashboards": [
      {
        "id": 1,
        "dashboard_title": "World Bank's Data",
        "slug": "world_health",
        "description": null,
        "css": null,
        "certified_by": null,
        "certification_details": null,
        "json_metadata": null,
        "position_json": null,
        "published": true,
        "is_managed_externally": null,
        "external_url": null,
        "created_on": "2025-07-30T15:44:51.197944",
        "changed_on": "2025-07-30T15:48:20.021408",
        "created_by": null,
        "changed_by": null,
        "uuid": "e6619f02-33fb-41d0-9fa4-82da715a60cb",
        "url": null,
        "thumbnail_url": null,
        "created_on_humanized": null,
        "changed_on_humanized": null,
        "chart_count": 0,
        "owners": [],
        "tags": [],
        "roles": [],
        "charts": []
      },
      {
        "id": 2,
        "dashboard_title": "USA Births Names",
        "slug": "births",
        "description": null,
        "css": null,
        "certified_by": null,
        "certification_details": null,
        "json_metadata": null,
        "position_json": null,
        "published": true,
        "is_managed_externally": null,
        "external_url": null,
        "created_on": "2025-07-30T15:44:55.179929",
        "changed_on": "2025-07-30T15:48:20.072668",
        "created_by": null,
        "changed_by": null,
        "uuid": "74892b32-bc3e-4df7-b4ba-948275ebc7cd",
        "url": null,
        "thumbnail_url": null,
        "created_on_humanized": null,
        "changed_on_humanized": null,
        "chart_count": 0,
        "owners": [],
        "tags": [],
        "roles": [],
        "charts": []
      },
      {
        "id": 3,
        "dashboard_title": "Misc Charts",
        "slug": "misc_charts",
        "description": null,
        "css": null,
        "certified_by": null,
        "certification_details": null,
        "json_metadata": null,
        "position_json": null,
        "published": false,
        "is_managed_externally": null,
        "external_url": null,
        "created_on": "2025-07-30T15:45:02.114617",
        "changed_on": "2025-07-30T15:48:20.112257",
        "created_by": null,
        "changed_by": null,
        "uuid": "43220538-886c-4fc9-b2f2-560799712442",
        "url": null,
        "thumbnail_url": null,
        "created_on_humanized": null,
        "changed_on_humanized": null,
        "chart_count": 0,
        "owners": [],
        "tags": [],
        "roles": [],
        "charts": []
      },
      {
        "id": 4,
        "dashboard_title": "deck.gl Demo",
        "slug": "deck",
        "description": null,
        "css": null,
        "certified_by": null,
        "certification_details": null,
        "json_metadata": null,
        "position_json": null,
        "published": true,
        "is_managed_externally": null,
        "external_url": null,
        "created_on": "2025-07-30T15:45:02.128134",
        "changed_on": "2025-07-30T15:48:20.131213",
        "created_by": null,
        "changed_by": null,
        "uuid": "71ca9b4e-93b1-4e43-bcc9-cc04595e730f",
        "url": null,
        "thumbnail_url": null,
        "created_on_humanized": null,
        "changed_on_humanized": null,
        "chart_count": 0,
        "owners": [],
        "tags": [],
        "roles": [],
        "charts": []
      },
      {
        "id": 5,
        "dashboard_title": "COVID Vaccine Dashboard",
        "slug": null,
        "description": null,
        "css": null,
        "certified_by": null,
        "certification_details": null,
        "json_metadata": null,
        "position_json": null,
        "published": true,
        "is_managed_externally": null,
        "external_url": null,
        "created_on": "2025-07-30T15:45:41.228238",
        "changed_on": "2025-07-30T15:48:20.864351",
        "created_by": null,
        "changed_by": null,
        "uuid": "f4065089-110a-41fa-8dd7-9ce98a65e250",
        "url": null,
        "thumbnail_url": null,
        "created_on_humanized": null,
        "changed_on_humanized": null,
        "chart_count": 0,
        "owners": [],
        "tags": [],
        "roles": [],
        "charts": []
      },
      {
        "id": 6,
        "dashboard_title": "Slack Dashboard",
        "slug": null,
        "description": null,
        "css": null,
        "certified_by": null,
        "certification_details": null,
        "json_metadata": null,
        "position_json": null,
        "published": true,
        "is_managed_externally": null,
        "external_url": null,
        "created_on": "2025-07-30T15:45:41.229156",
        "changed_on": "2025-07-30T15:48:20.865284",
        "created_by": null,
        "changed_by": null,
        "uuid": "9726d8b0-222f-eb2c-034a-02b9f51ef5fd",
        "url": null,
        "thumbnail_url": null,
        "created_on_humanized": null,
        "changed_on_humanized": null,
        "chart_count": 0,
        "owners": [],
        "tags": [],
        "roles": [],
        "charts": []
      },
      {
        "id": 7,
        "dashboard_title": "Featured Charts",
        "slug": null,
        "description": null,
        "css": null,
        "certified_by": null,
        "certification_details": null,
        "json_metadata": null,
        "position_json": null,
        "published": true,
        "is_managed_externally": null,
        "external_url": null,
        "created_on": "2025-07-30T15:45:41.230159",
        "changed_on": "2025-07-30T15:48:20.866562",
        "created_by": null,
        "changed_by": null,
        "uuid": "9992d759-90d7-4d2a-b34d-373a8aaa9889",
        "url": null,
        "thumbnail_url": null,
        "created_on_humanized": null,
        "changed_on_humanized": null,
        "chart_count": 0,
        "owners": [],
        "tags": [],
        "roles": [],
        "charts": []
      },
      {
        "id": 8,
        "dashboard_title": "Unicode Test",
        "slug": "unicode-test",
        "description": null,
        "css": null,
        "certified_by": null,
        "certification_details": null,
        "json_metadata": null,
        "position_json": null,
        "published": true,
        "is_managed_externally": null,
        "external_url": null,
        "created_on": "2025-07-30T15:45:41.231342",
        "changed_on": "2025-07-30T15:48:20.867818",
        "created_by": null,
        "changed_by": null,
        "uuid": "6b2de44e-7db1-4264-bfc1-ac3c00d42fad",
        "url": null,
        "thumbnail_url": null,
        "created_on_humanized": null,
        "changed_on_humanized": null,
        "chart_count": 0,
        "owners": [],
        "tags": [],
        "roles": [],
        "charts": []
      },
      {
        "id": 9,
        "dashboard_title": "Sales Dashboard",
        "slug": null,
        "description": null,
        "css": null,
        "certified_by": null,
        "certification_details": null,
        "json_metadata": null,
        "position_json": null,
        "published": true,
        "is_managed_externally": null,
        "external_url": null,
        "created_on": "2025-07-30T15:45:41.232235",
        "changed_on": "2025-07-30T15:48:20.868752",
        "created_by": null,
        "changed_by": null,
        "uuid": "04f79081-fb49-7bac-7f14-cc76cd2ad93b",
        "url": null,
        "thumbnail_url": null,
        "created_on_humanized": null,
        "changed_on_humanized": null,
        "chart_count": 0,
        "owners": [],
        "tags": [],
        "roles": [],
        "charts": []
      },
      {
        "id": 10,
        "dashboard_title": "Video Game Sales",
        "slug": null,
        "description": null,
        "css": null,
        "certified_by": null,
        "certification_details": null,
        "json_metadata": null,
        "position_json": null,
        "published": true,
        "is_managed_externally": null,
        "external_url": null,
        "created_on": "2025-07-30T15:45:41.233075",
        "changed_on": "2025-07-30T15:48:20.869533",
        "created_by": null,
        "changed_by": null,
        "uuid": "c7bc10f4-6a2d-7569-caae-bbc91864ee11",
        "url": null,
        "thumbnail_url": null,
        "created_on_humanized": null,
        "changed_on_humanized": null,
        "chart_count": 0,
        "owners": [],
        "tags": [],
        "roles": [],
        "charts": []
      }
    ],
    "count": 10,
    "total_count": 34,
    "page": 0,
    "page_size": 10,
    "total_pages": 4,
    "has_previous": false,
    "has_next": true,
    "columns_requested": [
      "id",
      "dashboard_title",
      "slug",
      "published",
      "changed_on",
      "created_on",
      "uuid"
    ],
    "columns_loaded": [
      "id",
      "dashboard_title",
      "slug",
      "published",
      "changed_on",
      "created_on",
      "uuid"
    ],
    "filters_applied": [],
    "pagination": {
      "page": 0,
      "page_size": 10,
      "total_count": 34,
      "total_pages": 4,
      "has_next": true,
      "has_previous": false
    },
    "timestamp": "2025-08-01T02:05:42.912630Z"
  },
  "isError": false
}
