{
  "meta": null,
  "content": [
    {
      "type": "text",
      "text": "{\"charts\":[{\"id\":137,\"slice_name\":\"Girl Name Cloud\",\"viz_type\":\"word_cloud\",\"datasource_name\":null,\"datasource_type\":null,\"url\":\"http://localhost:5008/screenshot/chart/137.png\",\"description\":null,\"cache_timeout\":null,\"form_data\":null,\"query_context\":null,\"changed_by\":null,\"changed_by_name\":null,\"changed_on\":\"2025-07-30T15:48:20.042418\",\"changed_on_humanized\":null,\"created_by\":null,\"created_on\":\"2025-07-30T15:48:20.042417\",\"created_on_humanized\":null,\"uuid\":\"83e013dd-41db-4871-ae17-d543fea473c7\",\"tags\":[],\"owners\":[]},{\"id\":138,\"slice_name\":\"Boys\",\"viz_type\":\"table\",\"datasource_name\":null,\"datasource_type\":null,\"url\":\"http://localhost:5008/screenshot/chart/138.png\",\"description\":null,\"cache_timeout\":null,\"form_data\":null,\"query_context\":null,\"changed_by\":null,\"changed_by_name\":null,\"changed_on\":\"2025-07-30T15:48:20.044007\",\"changed_on_humanized\":null,\"created_by\":null,\"created_on\":\"2025-07-30T15:48:20.044006\",\"created_on_humanized\":null,\"uuid\":\"b164a852-9b84-4335-b598-e260e3297306\",\"tags\":[],\"owners\":[]},{\"id\":139,\"slice_name\":\"Boy Name Cloud\",\"viz_type\":\"word_cloud\",\"datasource_name\":null,\"datasource_type\":null,\"url\":\"http://localhost:5008/screenshot/chart/139.png\",\"description\":null,\"cache_timeout\":null,\"form_data\":null,\"query_context\":null,\"changed_by\":null,\"changed_by_name\":null,\"changed_on\":\"2025-07-30T15:48:20.045835\",\"changed_on_humanized\":null,\"created_by\":null,\"created_on\":\"2025-07-30T15:48:20.045831\",\"created_on_humanized\":null,\"uuid\":\"620905d7-16a7-4efa-9374-0835317ae3c1\",\"tags\":[],\"owners\":[]},{\"id\":140,\"slice_name\":\"Top 10 Girl Name Share\",\"viz_type\":\"echarts_area\",\"datasource_name\":null,\"datasource_type\":null,\"url\":\"http://localhost:5008/screenshot/chart/140.png\",\"description\":null,\"cache_timeout\":null,\"form_data\":null,\"query_context\":null,\"changed_by\":null,\"changed_by_name\":null,\"changed_on\":\"2025-07-30T15:48:20.047411\",\"changed_on_humanized\":null,\"created_by\":null,\"created_on\":\"2025-07-30T15:48:20.047409\",\"created_on_humanized\":null,\"uuid\":\"8bd520b8-1ea2-4922-b143-f6136a8d94ea\",\"tags\":[],\"owners\":[]},{\"id\":141,\"slice_name\":\"Top 10 Boy Name Share\",\"viz_type\":\"echarts_area\",\"datasource_name\":null,\"datasource_type\":null,\"url\":\"http://localhost:5008/screenshot/chart/141.png\",\"description\":null,\"cache_timeout\":null,\"form_data\":null,\"query_context\":null,\"changed_by\":null,\"changed_by_name\":null,\"changed_on\":\"2025-07-30T15:48:20.048898\",\"changed_on_humanized\":null,\"created_by\":null,\"created_on\":\"2025-07-30T15:48:20.048896\",\"created_on_humanized\":null,\"uuid\":\"abb63d1b-b42e-4787-ba26-ed905e9246f6\",\"tags\":[],\"owners\":[]}],\"count\":5,\"total_count\":161,\"page\":1,\"page_size\":5,\"total_pages\":33,\"has_previous\":true,\"has_next\":true,\"columns_requested\":[\"id\",\"slice_name\",\"viz_type\",\"datasource_name\",\"description\",\"changed_by_name\",\"created_by_name\",\"changed_on\",\"created_on\",\"uuid\"],\"columns_loaded\":[\"id\",\"slice_name\",\"viz_type\",\"datasource_name\",\"description\",\"changed_by_name\",\"created_by_name\",\"changed_on\",\"created_on\",\"uuid\"],\"filters_applied\":[],\"pagination\":{\"page\":1,\"page_size\":5,\"total_count\":161,\"total_pages\":33,\"has_next\":true,\"has_previous\":true},\"timestamp\":\"2025-08-01T02:05:41.464504Z\"}",
      "annotations": null,
      "meta": null
    }
  ],
  "structuredContent": {
    "charts": [
      {
        "id": 137,
        "slice_name": "Girl Name Cloud",
        "viz_type": "word_cloud",
        "datasource_name": null,
        "datasource_type": null,
        "url": "http://localhost:5008/screenshot/chart/137.png",
        "description": null,
        "cache_timeout": null,
        "form_data": null,
        "query_context": null,
        "changed_by": null,
        "changed_by_name": null,
        "changed_on": "2025-07-30T15:48:20.042418",
        "changed_on_humanized": null,
        "created_by": null,
        "created_on": "2025-07-30T15:48:20.042417",
        "created_on_humanized": null,
        "uuid": "83e013dd-41db-4871-ae17-d543fea473c7",
        "tags": [],
        "owners": []
      },
      {
        "id": 138,
        "slice_name": "Boys",
        "viz_type": "table",
        "datasource_name": null,
        "datasource_type": null,
        "url": "http://localhost:5008/screenshot/chart/138.png",
        "description": null,
        "cache_timeout": null,
        "form_data": null,
        "query_context": null,
        "changed_by": null,
        "changed_by_name": null,
        "changed_on": "2025-07-30T15:48:20.044007",
        "changed_on_humanized": null,
        "created_by": null,
        "created_on": "2025-07-30T15:48:20.044006",
        "created_on_humanized": null,
        "uuid": "b164a852-9b84-4335-b598-e260e3297306",
        "tags": [],
        "owners": []
      },
      {
        "id": 139,
        "slice_name": "Boy Name Cloud",
        "viz_type": "word_cloud",
        "datasource_name": null,
        "datasource_type": null,
        "url": "http://localhost:5008/screenshot/chart/139.png",
        "description": null,
        "cache_timeout": null,
        "form_data": null,
        "query_context": null,
        "changed_by": null,
        "changed_by_name": null,
        "changed_on": "2025-07-30T15:48:20.045835",
        "changed_on_humanized": null,
        "created_by": null,
        "created_on": "2025-07-30T15:48:20.045831",
        "created_on_humanized": null,
        "uuid": "620905d7-16a7-4efa-9374-0835317ae3c1",
        "tags": [],
        "owners": []
      },
      {
        "id": 140,
        "slice_name": "Top 10 Girl Name Share",
        "viz_type": "echarts_area",
        "datasource_name": null,
        "datasource_type": null,
        "url": "http://localhost:5008/screenshot/chart/140.png",
        "description": null,
        "cache_timeout": null,
        "form_data": null,
        "query_context": null,
        "changed_by": null,
        "changed_by_name": null,
        "changed_on": "2025-07-30T15:48:20.047411",
        "changed_on_humanized": null,
        "created_by": null,
        "created_on": "2025-07-30T15:48:20.047409",
        "created_on_humanized": null,
        "uuid": "8bd520b8-1ea2-4922-b143-f6136a8d94ea",
        "tags": [],
        "owners": []
      },
      {
        "id": 141,
        "slice_name": "Top 10 Boy Name Share",
        "viz_type": "echarts_area",
        "datasource_name": null,
        "datasource_type": null,
        "url": "http://localhost:5008/screenshot/chart/141.png",
        "description": null,
        "cache_timeout": null,
        "form_data": null,
        "query_context": null,
        "changed_by": null,
        "changed_by_name": null,
        "changed_on": "2025-07-30T15:48:20.048898",
        "changed_on_humanized": null,
        "created_by": null,
        "created_on": "2025-07-30T15:48:20.048896",
        "created_on_humanized": null,
        "uuid": "abb63d1b-b42e-4787-ba26-ed905e9246f6",
        "tags": [],
        "owners": []
      }
    ],
    "count": 5,
    "total_count": 161,
    "page": 1,
    "page_size": 5,
    "total_pages": 33,
    "has_previous": true,
    "has_next": true,
    "columns_requested": [
      "id",
      "slice_name",
      "viz_type",
      "datasource_name",
      "description",
      "changed_by_name",
      "created_by_name",
      "changed_on",
      "created_on",
      "uuid"
    ],
    "columns_loaded": [
      "id",
      "slice_name",
      "viz_type",
      "datasource_name",
      "description",
      "changed_by_name",
      "created_by_name",
      "changed_on",
      "created_on",
      "uuid"
    ],
    "filters_applied": [],
    "pagination": {
      "page": 1,
      "page_size": 5,
      "total_count": 161,
      "total_pages": 33,
      "has_next": true,
      "has_previous": true
    },
    "timestamp": "2025-08-01T02:05:41.464504Z"
  },
  "isError": false
}
