{
  "meta": null,
  "content": [
    {
      "type": "text",
      "text": "{\"charts\":[{\"id\":130,\"slice_name\":\"Treemap\",\"viz_type\":\"treemap_v2\",\"datasource_name\":null,\"datasource_type\":null,\"url\":\"http://localhost:5008/screenshot/chart/130.png\",\"description\":null,\"cache_timeout\":null,\"form_data\":null,\"query_context\":null,\"changed_by\":null,\"changed_by_name\":null,\"changed_on\":\"2025-07-30T15:48:20.012527\",\"changed_on_humanized\":null,\"created_by\":null,\"created_on\":\"2025-07-30T15:48:20.012523\",\"created_on_humanized\":null,\"uuid\":\"b134a320-d987-4ff9-8a49-cd0b36874872\",\"tags\":[],\"owners\":[]},{\"id\":132,\"slice_name\":\"Participants\",\"viz_type\":\"big_number\",\"datasource_name\":null,\"datasource_type\":null,\"url\":\"http://localhost:5008/screenshot/chart/132.png\",\"description\":null,\"cache_timeout\":null,\"form_data\":null,\"query_context\":null,\"changed_by\":null,\"changed_by_name\":null,\"changed_on\":\"2025-07-30T15:48:20.035205\",\"changed_on_humanized\":null,\"created_by\":null,\"created_on\":\"2025-07-30T15:48:20.035203\",\"created_on_humanized\":null,\"uuid\":\"85cc5a18-e9de-4e23-969a-bef4444bf757\",\"tags\":[],\"owners\":[]},{\"id\":134,\"slice_name\":\"Trends\",\"viz_type\":\"echarts_timeseries_line\",\"datasource_name\":null,\"datasource_type\":null,\"url\":\"http://localhost:5008/screenshot/chart/134.png\",\"description\":null,\"cache_timeout\":null,\"form_data\":null,\"query_context\":null,\"changed_by\":null,\"changed_by_name\":null,\"changed_on\":\"2025-07-30T15:48:20.038221\",\"changed_on_humanized\":null,\"created_by\":null,\"created_on\":\"2025-07-30T15:48:20.038219\",\"created_on_humanized\":null,\"uuid\":\"fc58464c-2bf1-425e-bc30-5acd74c3efd8\",\"tags\":[],\"owners\":[]},{\"id\":135,\"slice_name\":\"Genders by State\",\"viz_type\":\"echarts_timeseries_bar\",\"datasource_name\":null,\"datasource_type\":null,\"url\":\"http://localhost:5008/screenshot/chart/135.png\",\"description\":null,\"cache_timeout\":null,\"form_data\":null,\"query_context\":null,\"changed_by\":null,\"changed_by_name\":null,\"changed_on\":\"2025-07-30T15:48:20.039621\",\"changed_on_humanized\":null,\"created_by\":null,\"created_on\":\"2025-07-30T15:48:20.039620\",\"created_on_humanized\":null,\"uuid\":\"a17bd80a-5e74-4f3a-84d4-7f704ed4ef91\",\"tags\":[],\"owners\":[]},{\"id\":136,\"slice_name\":\"Girls\",\"viz_type\":\"table\",\"datasource_name\":null,\"datasource_type\":null,\"url\":\"http://localhost:5008/screenshot/chart/136.png\",\"description\":null,\"cache_timeout\":null,\"form_data\":null,\"query_context\":null,\"changed_by\":null,\"changed_by_name\":null,\"changed_on\":\"2025-07-30T15:48:20.041027\",\"changed_on_humanized\":null,\"created_by\":null,\"created_on\":\"2025-07-30T15:48:20.041026\",\"created_on_humanized\":null,\"uuid\":\"b095db47-2a22-4f37-8a93-422d54533521\",\"tags\":[],\"owners\":[]},{\"id\":137,\"slice_name\":\"Girl Name Cloud\",\"viz_type\":\"word_cloud\",\"datasource_name\":null,\"datasource_type\":null,\"url\":\"http://localhost:5008/screenshot/chart/137.png\",\"description\":null,\"cache_timeout\":null,\"form_data\":null,\"query_context\":null,\"changed_by\":null,\"changed_by_name\":null,\"changed_on\":\"2025-07-30T15:48:20.042418\",\"changed_on_humanized\":null,\"created_by\":null,\"created_on\":\"2025-07-30T15:48:20.042417\",\"created_on_humanized\":null,\"uuid\":\"83e013dd-41db-4871-ae17-d543fea473c7\",\"tags\":[],\"owners\":[]},{\"id\":138,\"slice_name\":\"Boys\",\"viz_type\":\"table\",\"datasource_name\":null,\"datasource_type\":null,\"url\":\"http://localhost:5008/screenshot/chart/138.png\",\"description\":null,\"cache_timeout\":null,\"form_data\":null,\"query_context\":null,\"changed_by\":null,\"changed_by_name\":null,\"changed_on\":\"2025-07-30T15:48:20.044007\",\"changed_on_humanized\":null,\"created_by\":null,\"created_on\":\"2025-07-30T15:48:20.044006\",\"created_on_humanized\":null,\"uuid\":\"b164a852-9b84-4335-b598-e260e3297306\",\"tags\":[],\"owners\":[]},{\"id\":139,\"slice_name\":\"Boy Name Cloud\",\"viz_type\":\"word_cloud\",\"datasource_name\":null,\"datasource_type\":null,\"url\":\"http://localhost:5008/screenshot/chart/139.png\",\"description\":null,\"cache_timeout\":null,\"form_data\":null,\"query_context\":null,\"changed_by\":null,\"changed_by_name\":null,\"changed_on\":\"2025-07-30T15:48:20.045835\",\"changed_on_humanized\":null,\"created_by\":null,\"created_on\":\"2025-07-30T15:48:20.045831\",\"created_on_humanized\":null,\"uuid\":\"620905d7-16a7-4efa-9374-0835317ae3c1\",\"tags\":[],\"owners\":[]},{\"id\":140,\"slice_name\":\"Top 10 Girl Name Share\",\"viz_type\":\"echarts_area\",\"datasource_name\":null,\"datasource_type\":null,\"url\":\"http://localhost:5008/screenshot/chart/140.png\",\"description\":null,\"cache_timeout\":null,\"form_data\":null,\"query_context\":null,\"changed_by\":null,\"changed_by_name\":null,\"changed_on\":\"2025-07-30T15:48:20.047411\",\"changed_on_humanized\":null,\"created_by\":null,\"created_on\":\"2025-07-30T15:48:20.047409\",\"created_on_humanized\":null,\"uuid\":\"8bd520b8-1ea2-4922-b143-f6136a8d94ea\",\"tags\":[],\"owners\":[]},{\"id\":141,\"slice_name\":\"Top 10 Boy Name Share\",\"viz_type\":\"echarts_area\",\"datasource_name\":null,\"datasource_type\":null,\"url\":\"http://localhost:5008/screenshot/chart/141.png\",\"description\":null,\"cache_timeout\":null,\"form_data\":null,\"query_context\":null,\"changed_by\":null,\"changed_by_name\":null,\"changed_on\":\"2025-07-30T15:48:20.048898\",\"changed_on_humanized\":null,\"created_by\":null,\"created_on\":\"2025-07-30T15:48:20.048896\",\"created_on_humanized\":null,\"uuid\":\"abb63d1b-b42e-4787-ba26-ed905e9246f6\",\"tags\":[],\"owners\":[]},{\"id\":142,\"slice_name\":\"Pivot Table v2\",\"viz_type\":\"pivot_table_v2\",\"datasource_name\":null,\"datasource_type\":null,\"url\":\"http://localhost:5008/screenshot/chart/142.png\",\"description\":null,\"cache_timeout\":null,\"form_data\":null,\"query_context\":null,\"changed_by\":null,\"changed_by_name\":null,\"changed_on\":\"2025-07-30T15:48:20.050622\",\"changed_on_humanized\":null,\"created_by\":null,\"created_on\":\"2025-07-30T15:48:20.050620\",\"created_on_humanized\":null,\"uuid\":\"c40cd375-8b54-484c-adf6-454f4c327d57\",\"tags\":[],\"owners\":[]},{\"id\":143,\"slice_name\":\"Average and Sum Trends\",\"viz_type\":\"mixed_timeseries\",\"datasource_name\":null,\"datasource_type\":null,\"url\":\"http://localhost:5008/screenshot/chart/143.png\",\"description\":null,\"cache_timeout\":null,\"form_data\":null,\"query_context\":null,\"changed_by\":null,\"changed_by_name\":null,\"changed_on\":\"2025-07-30T15:48:20.052117\",\"changed_on_humanized\":null,\"created_by\":null,\"created_on\":\"2025-07-30T15:48:20.052115\",\"created_on_humanized\":null,\"uuid\":\"354379f0-5472-40bb-89da-a03a1a8ab7a1\",\"tags\":[],\"owners\":[]},{\"id\":144,\"slice_name\":\"Num Births Trend\",\"viz_type\":\"echarts_timeseries_line\",\"datasource_name\":null,\"datasource_type\":null,\"url\":\"http://localhost:5008/screenshot/chart/144.png\",\"description\":null,\"cache_timeout\":null,\"form_data\":null,\"query_context\":null,\"changed_by\":null,\"changed_by_name\":null,\"changed_on\":\"2025-07-30T15:48:20.053592\",\"changed_on_humanized\":null,\"created_by\":null,\"created_on\":\"2025-07-30T15:48:20.053591\",\"created_on_humanized\":null,\"uuid\":\"6304039e-9e6c-46d6-bd52-f428e14b6348\",\"tags\":[],\"owners\":[]},{\"id\":145,\"slice_name\":\"Daily Totals\",\"viz_type\":\"table\",\"datasource_name\":null,\"datasource_type\":null,\"url\":\"http://localhost:5008/screenshot/chart/145.png\",\"description\":null,\"cache_timeout\":null,\"form_data\":null,\"query_context\":null,\"changed_by\":null,\"changed_by_name\":null,\"changed_on\":\"2025-07-30T15:48:20.054975\",\"changed_on_humanized\":null,\"created_by\":null,\"created_on\":\"2025-07-30T15:48:20.054973\",\"created_on_humanized\":null,\"uuid\":\"be8eeb0b-811c-4754-9c51-6c4ae155a54a\",\"tags\":[],\"owners\":[]},{\"id\":146,\"slice_name\":\"Number of California Births\",\"viz_type\":\"big_number_total\",\"datasource_name\":null,\"datasource_type\":null,\"url\":\"http://localhost:5008/screenshot/chart/146.png\",\"description\":null,\"cache_timeout\":null,\"form_data\":null,\"query_context\":null,\"changed_by\":null,\"changed_by_name\":null,\"changed_on\":\"2025-07-30T15:48:20.056696\",\"changed_on_humanized\":null,\"created_by\":null,\"created_on\":\"2025-07-30T15:48:20.056695\",\"created_on_humanized\":null,\"uuid\":\"a2ee102a-5604-46c0-9c08-2f5928981b5b\",\"tags\":[],\"owners\":[]},{\"id\":147,\"slice_name\":\"Top 10 California Names Timeseries\",\"viz_type\":\"echarts_timeseries_line\",\"datasource_name\":null,\"datasource_type\":null,\"url\":\"http://localhost:5008/screenshot/chart/147.png\",\"description\":null,\"cache_timeout\":null,\"form_data\":null,\"query_context\":null,\"changed_by\":null,\"changed_by_name\":null,\"changed_on\":\"2025-07-30T15:48:20.058047\",\"changed_on_humanized\":null,\"created_by\":null,\"created_on\":\"2025-07-30T15:48:20.058046\",\"created_on_humanized\":null,\"uuid\":\"84f231bf-f461-4cd2-8777-7ffc657e61a6\",\"tags\":[],\"owners\":[]},{\"id\":148,\"slice_name\":\"Names Sorted by Num in California\",\"viz_type\":\"table\",\"datasource_name\":null,\"datasource_type\":null,\"url\":\"http://localhost:5008/screenshot/chart/148.png\",\"description\":null,\"cache_timeout\":null,\"form_data\":null,\"query_context\":null,\"changed_by\":null,\"changed_by_name\":null,\"changed_on\":\"2025-07-30T15:48:20.059843\",\"changed_on_humanized\":null,\"created_by\":null,\"created_on\":\"2025-07-30T15:48:20.059841\",\"created_on_humanized\":null,\"uuid\":\"41b9624d-5165-4166-b68c-862b8079533d\",\"tags\":[],\"owners\":[]},{\"id\":149,\"slice_name\":\"Number of Girls\",\"viz_type\":\"big_number_total\",\"datasource_name\":null,\"datasource_type\":null,\"url\":\"http://localhost:5008/screenshot/chart/149.png\",\"description\":null,\"cache_timeout\":null,\"form_data\":null,\"query_context\":null,\"changed_by\":null,\"changed_by_name\":null,\"changed_on\":\"2025-07-30T15:48:20.061225\",\"changed_on_humanized\":null,\"created_by\":null,\"created_on\":\"2025-07-30T15:48:20.061223\",\"created_on_humanized\":null,\"uuid\":\"b8e81863-d0e7-4172-b8df-0662961d92ed\",\"tags\":[],\"owners\":[]},{\"id\":150,\"slice_name\":\"Pivot Table\",\"viz_type\":\"pivot_table_v2\",\"datasource_name\":null,\"datasource_type\":null,\"url\":\"http://localhost:5008/screenshot/chart/150.png\",\"description\":null,\"cache_timeout\":null,\"form_data\":null,\"query_context\":null,\"changed_by\":null,\"changed_by_name\":null,\"changed_on\":\"2025-07-30T15:48:20.062612\",\"changed_on_humanized\":null,\"created_by\":null,\"created_on\":\"2025-07-30T15:48:20.062611\",\"created_on_humanized\":null,\"uuid\":\"ac916221-a2f1-4d27-ba06-a6a02917e2e9\",\"tags\":[],\"owners\":[]},{\"id\":151,\"slice_name\":\"OSM Long/Lat\",\"viz_type\":\"osm\",\"datasource_name\":null,\"datasource_type\":null,\"url\":\"http://localhost:5008/screenshot/chart/151.png\",\"description\":null,\"cache_timeout\":null,\"form_data\":null,\"query_context\":null,\"changed_by\":null,\"changed_by_name\":null,\"changed_on\":\"2025-07-30T15:48:20.081349\",\"changed_on_humanized\":null,\"created_by\":null,\"created_on\":\"2025-07-30T15:48:20.081347\",\"created_on_humanized\":null,\"uuid\":\"0e190b99-2749-4130-86ea-521428c79e9f\",\"tags\":[],\"owners\":[]}],\"count\":20,\"total_count\":161,\"page\":0,\"page_size\":20,\"total_pages\":9,\"has_previous\":false,\"has_next\":true,\"columns_requested\":[\"id\",\"slice_name\",\"viz_type\",\"datasource_name\",\"description\",\"changed_by_name\",\"created_by_name\",\"changed_on\",\"created_on\",\"uuid\"],\"columns_loaded\":[\"id\",\"slice_name\",\"viz_type\",\"datasource_name\",\"description\",\"changed_by_name\",\"created_by_name\",\"changed_on\",\"created_on\",\"uuid\"],\"filters_applied\":[],\"pagination\":{\"page\":0,\"page_size\":20,\"total_count\":161,\"total_pages\":9,\"has_next\":true,\"has_previous\":false},\"timestamp\":\"2025-08-01T02:05:40.772625Z\"}",
      "annotations": null,
      "meta": null
    }
  ],
  "structuredContent": {
    "charts": [
      {
        "id": 130,
        "slice_name": "Treemap",
        "viz_type": "treemap_v2",
        "datasource_name": null,
        "datasource_type": null,
        "url": "http://localhost:5008/screenshot/chart/130.png",
        "description": null,
        "cache_timeout": null,
        "form_data": null,
        "query_context": null,
        "changed_by": null,
        "changed_by_name": null,
        "changed_on": "2025-07-30T15:48:20.012527",
        "changed_on_humanized": null,
        "created_by": null,
        "created_on": "2025-07-30T15:48:20.012523",
        "created_on_humanized": null,
        "uuid": "b134a320-d987-4ff9-8a49-cd0b36874872",
        "tags": [],
        "owners": []
      },
      {
        "id": 132,
        "slice_name": "Participants",
        "viz_type": "big_number",
        "datasource_name": null,
        "datasource_type": null,
        "url": "http://localhost:5008/screenshot/chart/132.png",
        "description": null,
        "cache_timeout": null,
        "form_data": null,
        "query_context": null,
        "changed_by": null,
        "changed_by_name": null,
        "changed_on": "2025-07-30T15:48:20.035205",
        "changed_on_humanized": null,
        "created_by": null,
        "created_on": "2025-07-30T15:48:20.035203",
        "created_on_humanized": null,
        "uuid": "85cc5a18-e9de-4e23-969a-bef4444bf757",
        "tags": [],
        "owners": []
      },
      {
        "id": 134,
        "slice_name": "Trends",
        "viz_type": "echarts_timeseries_line",
        "datasource_name": null,
        "datasource_type": null,
        "url": "http://localhost:5008/screenshot/chart/134.png",
        "description": null,
        "cache_timeout": null,
        "form_data": null,
        "query_context": null,
        "changed_by": null,
        "changed_by_name": null,
        "changed_on": "2025-07-30T15:48:20.038221",
        "changed_on_humanized": null,
        "created_by": null,
        "created_on": "2025-07-30T15:48:20.038219",
        "created_on_humanized": null,
        "uuid": "fc58464c-2bf1-425e-bc30-5acd74c3efd8",
        "tags": [],
        "owners": []
      },
      {
        "id": 135,
        "slice_name": "Genders by State",
        "viz_type": "echarts_timeseries_bar",
        "datasource_name": null,
        "datasource_type": null,
        "url": "http://localhost:5008/screenshot/chart/135.png",
        "description": null,
        "cache_timeout": null,
        "form_data": null,
        "query_context": null,
        "changed_by": null,
        "changed_by_name": null,
        "changed_on": "2025-07-30T15:48:20.039621",
        "changed_on_humanized": null,
        "created_by": null,
        "created_on": "2025-07-30T15:48:20.039620",
        "created_on_humanized": null,
        "uuid": "a17bd80a-5e74-4f3a-84d4-7f704ed4ef91",
        "tags": [],
        "owners": []
      },
      {
        "id": 136,
        "slice_name": "Girls",
        "viz_type": "table",
        "datasource_name": null,
        "datasource_type": null,
        "url": "http://localhost:5008/screenshot/chart/136.png",
        "description": null,
        "cache_timeout": null,
        "form_data": null,
        "query_context": null,
        "changed_by": null,
        "changed_by_name": null,
        "changed_on": "2025-07-30T15:48:20.041027",
        "changed_on_humanized": null,
        "created_by": null,
        "created_on": "2025-07-30T15:48:20.041026",
        "created_on_humanized": null,
        "uuid": "b095db47-2a22-4f37-8a93-422d54533521",
        "tags": [],
        "owners": []
      },
      {
        "id": 137,
        "slice_name": "Girl Name Cloud",
        "viz_type": "word_cloud",
        "datasource_name": null,
        "datasource_type": null,
        "url": "http://localhost:5008/screenshot/chart/137.png",
        "description": null,
        "cache_timeout": null,
        "form_data": null,
        "query_context": null,
        "changed_by": null,
        "changed_by_name": null,
        "changed_on": "2025-07-30T15:48:20.042418",
        "changed_on_humanized": null,
        "created_by": null,
        "created_on": "2025-07-30T15:48:20.042417",
        "created_on_humanized": null,
        "uuid": "83e013dd-41db-4871-ae17-d543fea473c7",
        "tags": [],
        "owners": []
      },
      {
        "id": 138,
        "slice_name": "Boys",
        "viz_type": "table",
        "datasource_name": null,
        "datasource_type": null,
        "url": "http://localhost:5008/screenshot/chart/138.png",
        "description": null,
        "cache_timeout": null,
        "form_data": null,
        "query_context": null,
        "changed_by": null,
        "changed_by_name": null,
        "changed_on": "2025-07-30T15:48:20.044007",
        "changed_on_humanized": null,
        "created_by": null,
        "created_on": "2025-07-30T15:48:20.044006",
        "created_on_humanized": null,
        "uuid": "b164a852-9b84-4335-b598-e260e3297306",
        "tags": [],
        "owners": []
      },
      {
        "id": 139,
        "slice_name": "Boy Name Cloud",
        "viz_type": "word_cloud",
        "datasource_name": null,
        "datasource_type": null,
        "url": "http://localhost:5008/screenshot/chart/139.png",
        "description": null,
        "cache_timeout": null,
        "form_data": null,
        "query_context": null,
        "changed_by": null,
        "changed_by_name": null,
        "changed_on": "2025-07-30T15:48:20.045835",
        "changed_on_humanized": null,
        "created_by": null,
        "created_on": "2025-07-30T15:48:20.045831",
        "created_on_humanized": null,
        "uuid": "620905d7-16a7-4efa-9374-0835317ae3c1",
        "tags": [],
        "owners": []
      },
      {
        "id": 140,
        "slice_name": "Top 10 Girl Name Share",
        "viz_type": "echarts_area",
        "datasource_name": null,
        "datasource_type": null,
        "url": "http://localhost:5008/screenshot/chart/140.png",
        "description": null,
        "cache_timeout": null,
        "form_data": null,
        "query_context": null,
        "changed_by": null,
        "changed_by_name": null,
        "changed_on": "2025-07-30T15:48:20.047411",
        "changed_on_humanized": null,
        "created_by": null,
        "created_on": "2025-07-30T15:48:20.047409",
        "created_on_humanized": null,
        "uuid": "8bd520b8-1ea2-4922-b143-f6136a8d94ea",
        "tags": [],
        "owners": []
      },
      {
        "id": 141,
        "slice_name": "Top 10 Boy Name Share",
        "viz_type": "echarts_area",
        "datasource_name": null,
        "datasource_type": null,
        "url": "http://localhost:5008/screenshot/chart/141.png",
        "description": null,
        "cache_timeout": null,
        "form_data": null,
        "query_context": null,
        "changed_by": null,
        "changed_by_name": null,
        "changed_on": "2025-07-30T15:48:20.048898",
        "changed_on_humanized": null,
        "created_by": null,
        "created_on": "2025-07-30T15:48:20.048896",
        "created_on_humanized": null,
        "uuid": "abb63d1b-b42e-4787-ba26-ed905e9246f6",
        "tags": [],
        "owners": []
      },
      {
        "id": 142,
        "slice_name": "Pivot Table v2",
        "viz_type": "pivot_table_v2",
        "datasource_name": null,
        "datasource_type": null,
        "url": "http://localhost:5008/screenshot/chart/142.png",
        "description": null,
        "cache_timeout": null,
        "form_data": null,
        "query_context": null,
        "changed_by": null,
        "changed_by_name": null,
        "changed_on": "2025-07-30T15:48:20.050622",
        "changed_on_humanized": null,
        "created_by": null,
        "created_on": "2025-07-30T15:48:20.050620",
        "created_on_humanized": null,
        "uuid": "c40cd375-8b54-484c-adf6-454f4c327d57",
        "tags": [],
        "owners": []
      },
      {
        "id": 143,
        "slice_name": "Average and Sum Trends",
        "viz_type": "mixed_timeseries",
        "datasource_name": null,
        "datasource_type": null,
        "url": "http://localhost:5008/screenshot/chart/143.png",
        "description": null,
        "cache_timeout": null,
        "form_data": null,
        "query_context": null,
        "changed_by": null,
        "changed_by_name": null,
        "changed_on": "2025-07-30T15:48:20.052117",
        "changed_on_humanized": null,
        "created_by": null,
        "created_on": "2025-07-30T15:48:20.052115",
        "created_on_humanized": null,
        "uuid": "354379f0-5472-40bb-89da-a03a1a8ab7a1",
        "tags": [],
        "owners": []
      },
      {
        "id": 144,
        "slice_name": "Num Births Trend",
        "viz_type": "echarts_timeseries_line",
        "datasource_name": null,
        "datasource_type": null,
        "url": "http://localhost:5008/screenshot/chart/144.png",
        "description": null,
        "cache_timeout": null,
        "form_data": null,
        "query_context": null,
        "changed_by": null,
        "changed_by_name": null,
        "changed_on": "2025-07-30T15:48:20.053592",
        "changed_on_humanized": null,
        "created_by": null,
        "created_on": "2025-07-30T15:48:20.053591",
        "created_on_humanized": null,
        "uuid": "6304039e-9e6c-46d6-bd52-f428e14b6348",
        "tags": [],
        "owners": []
      },
      {
        "id": 145,
        "slice_name": "Daily Totals",
        "viz_type": "table",
        "datasource_name": null,
        "datasource_type": null,
        "url": "http://localhost:5008/screenshot/chart/145.png",
        "description": null,
        "cache_timeout": null,
        "form_data": null,
        "query_context": null,
        "changed_by": null,
        "changed_by_name": null,
        "changed_on": "2025-07-30T15:48:20.054975",
        "changed_on_humanized": null,
        "created_by": null,
        "created_on": "2025-07-30T15:48:20.054973",
        "created_on_humanized": null,
        "uuid": "be8eeb0b-811c-4754-9c51-6c4ae155a54a",
        "tags": [],
        "owners": []
      },
      {
        "id": 146,
        "slice_name": "Number of California Births",
        "viz_type": "big_number_total",
        "datasource_name": null,
        "datasource_type": null,
        "url": "http://localhost:5008/screenshot/chart/146.png",
        "description": null,
        "cache_timeout": null,
        "form_data": null,
        "query_context": null,
        "changed_by": null,
        "changed_by_name": null,
        "changed_on": "2025-07-30T15:48:20.056696",
        "changed_on_humanized": null,
        "created_by": null,
        "created_on": "2025-07-30T15:48:20.056695",
        "created_on_humanized": null,
        "uuid": "a2ee102a-5604-46c0-9c08-2f5928981b5b",
        "tags": [],
        "owners": []
      },
      {
        "id": 147,
        "slice_name": "Top 10 California Names Timeseries",
        "viz_type": "echarts_timeseries_line",
        "datasource_name": null,
        "datasource_type": null,
        "url": "http://localhost:5008/screenshot/chart/147.png",
        "description": null,
        "cache_timeout": null,
        "form_data": null,
        "query_context": null,
        "changed_by": null,
        "changed_by_name": null,
        "changed_on": "2025-07-30T15:48:20.058047",
        "changed_on_humanized": null,
        "created_by": null,
        "created_on": "2025-07-30T15:48:20.058046",
        "created_on_humanized": null,
        "uuid": "84f231bf-f461-4cd2-8777-7ffc657e61a6",
        "tags": [],
        "owners": []
      },
      {
        "id": 148,
        "slice_name": "Names Sorted by Num in California",
        "viz_type": "table",
        "datasource_name": null,
        "datasource_type": null,
        "url": "http://localhost:5008/screenshot/chart/148.png",
        "description": null,
        "cache_timeout": null,
        "form_data": null,
        "query_context": null,
        "changed_by": null,
        "changed_by_name": null,
        "changed_on": "2025-07-30T15:48:20.059843",
        "changed_on_humanized": null,
        "created_by": null,
        "created_on": "2025-07-30T15:48:20.059841",
        "created_on_humanized": null,
        "uuid": "41b9624d-5165-4166-b68c-862b8079533d",
        "tags": [],
        "owners": []
      },
      {
        "id": 149,
        "slice_name": "Number of Girls",
        "viz_type": "big_number_total",
        "datasource_name": null,
        "datasource_type": null,
        "url": "http://localhost:5008/screenshot/chart/149.png",
        "description": null,
        "cache_timeout": null,
        "form_data": null,
        "query_context": null,
        "changed_by": null,
        "changed_by_name": null,
        "changed_on": "2025-07-30T15:48:20.061225",
        "changed_on_humanized": null,
        "created_by": null,
        "created_on": "2025-07-30T15:48:20.061223",
        "created_on_humanized": null,
        "uuid": "b8e81863-d0e7-4172-b8df-0662961d92ed",
        "tags": [],
        "owners": []
      },
      {
        "id": 150,
        "slice_name": "Pivot Table",
        "viz_type": "pivot_table_v2",
        "datasource_name": null,
        "datasource_type": null,
        "url": "http://localhost:5008/screenshot/chart/150.png",
        "description": null,
        "cache_timeout": null,
        "form_data": null,
        "query_context": null,
        "changed_by": null,
        "changed_by_name": null,
        "changed_on": "2025-07-30T15:48:20.062612",
        "changed_on_humanized": null,
        "created_by": null,
        "created_on": "2025-07-30T15:48:20.062611",
        "created_on_humanized": null,
        "uuid": "ac916221-a2f1-4d27-ba06-a6a02917e2e9",
        "tags": [],
        "owners": []
      },
      {
        "id": 151,
        "slice_name": "OSM Long/Lat",
        "viz_type": "osm",
        "datasource_name": null,
        "datasource_type": null,
        "url": "http://localhost:5008/screenshot/chart/151.png",
        "description": null,
        "cache_timeout": null,
        "form_data": null,
        "query_context": null,
        "changed_by": null,
        "changed_by_name": null,
        "changed_on": "2025-07-30T15:48:20.081349",
        "changed_on_humanized": null,
        "created_by": null,
        "created_on": "2025-07-30T15:48:20.081347",
        "created_on_humanized": null,
        "uuid": "0e190b99-2749-4130-86ea-521428c79e9f",
        "tags": [],
        "owners": []
      }
    ],
    "count": 20,
    "total_count": 161,
    "page": 0,
    "page_size": 20,
    "total_pages": 9,
    "has_previous": false,
    "has_next": true,
    "columns_requested": [
      "id",
      "slice_name",
      "viz_type",
      "datasource_name",
      "description",
      "changed_by_name",
      "created_by_name",
      "changed_on",
      "created_on",
      "uuid"
    ],
    "columns_loaded": [
      "id",
      "slice_name",
      "viz_type",
      "datasource_name",
      "description",
      "changed_by_name",
      "created_by_name",
      "changed_on",
      "created_on",
      "uuid"
    ],
    "filters_applied": [],
    "pagination": {
      "page": 0,
      "page_size": 20,
      "total_count": 161,
      "total_pages": 9,
      "has_next": true,
      "has_previous": false
    },
    "timestamp": "2025-08-01T02:05:40.772625Z"
  },
  "isError": false
}
