{
  "meta": null,
  "content": [
    {
      "type": "text",
      "text": "{\"charts\":[{\"id\":75,\"slice_name\":\"Top 10 Games: Proportion of Sales in Markets\",\"viz_type\":\"echarts_timeseries_bar\",\"datasource_name\":\"video_game_sales\",\"datasource_type\":null,\"url\":\"http://localhost:5008/screenshot/chart/75.png\",\"description\":null,\"cache_timeout\":null,\"form_data\":null,\"query_context\":null,\"changed_by\":null,\"changed_by_name\":null,\"changed_on\":\"2025-07-30T15:48:20.782551\",\"changed_on_humanized\":null,\"created_by\":null,\"created_on\":\"2025-07-30T15:45:41.166249\",\"created_on_humanized\":null,\"uuid\":\"a40879d5-653a-42fe-9314-bbe88ad26e92\",\"tags\":[],\"owners\":[]},{\"id\":76,\"slice_name\":\"Total Sales per Market (Grouped by Genre)\",\"viz_type\":\"echarts_timeseries_bar\",\"datasource_name\":\"video_game_sales\",\"datasource_type\":null,\"url\":\"http://localhost:5008/screenshot/chart/76.png\",\"description\":null,\"cache_timeout\":null,\"form_data\":null,\"query_context\":null,\"changed_by\":null,\"changed_by_name\":null,\"changed_on\":\"2025-07-30T15:48:20.784016\",\"changed_on_humanized\":null,\"created_by\":null,\"created_on\":\"2025-07-30T15:45:41.167326\",\"created_on_humanized\":null,\"uuid\":\"d8bf948e-46fd-4380-9f9c-a950c34bcc92\",\"tags\":[],\"owners\":[]},{\"id\":78,\"slice_name\":\"# of Games That Hit 100k in Sales By Release Year\",\"viz_type\":\"treemap_v2\",\"datasource_name\":\"video_game_sales\",\"datasource_type\":null,\"url\":\"http://localhost:5008/screenshot/chart/78.png\",\"description\":null,\"cache_timeout\":null,\"form_data\":null,\"query_context\":null,\"changed_by\":null,\"changed_by_name\":null,\"changed_on\":\"2025-07-30T15:48:20.787316\",\"changed_on_humanized\":null,\"created_by\":null,\"created_on\":\"2025-07-30T15:45:41.169592\",\"created_on_humanized\":null,\"uuid\":\"2b69887b-23e3-b46d-d38c-8ea11856c555\",\"tags\":[],\"owners\":[]},{\"id\":84,\"slice_name\":\"Quarterly Sales\",\"viz_type\":\"echarts_timeseries_bar\",\"datasource_name\":\"cleaned_sales_data\",\"datasource_type\":null,\"url\":\"http://localhost:5008/screenshot/chart/84.png\",\"description\":null,\"cache_timeout\":null,\"form_data\":null,\"query_context\":null,\"changed_by\":null,\"changed_by_name\":null,\"changed_on\":\"2025-07-30T15:48:20.797210\",\"changed_on_humanized\":null,\"created_by\":null,\"created_on\":\"2025-07-30T15:45:41.176247\",\"created_on_humanized\":null,\"uuid\":\"692aca26-a526-85db-c94c-411c91cc1077\",\"tags\":[],\"owners\":[]},{\"id\":91,\"slice_name\":\"Overall Sales (By Product Line)\",\"viz_type\":\"pie\",\"datasource_name\":\"cleaned_sales_data\",\"datasource_type\":null,\"url\":\"http://localhost:5008/screenshot/chart/91.png\",\"description\":null,\"cache_timeout\":null,\"form_data\":null,\"query_context\":null,\"changed_by\":null,\"changed_by_name\":null,\"changed_on\":\"2025-07-30T15:48:20.812290\",\"changed_on_humanized\":null,\"created_by\":null,\"created_on\":\"2025-07-30T15:45:41.189889\",\"created_on_humanized\":null,\"uuid\":\"09c497e0-f442-1121-c9e7-671e37750424\",\"tags\":[],\"owners\":[]},{\"id\":87,\"slice_name\":\"Quarterly Sales (By Product Line)\",\"viz_type\":\"echarts_timeseries_bar\",\"datasource_name\":\"cleaned_sales_data\",\"datasource_type\":null,\"url\":\"http://localhost:5008/screenshot/chart/87.png\",\"description\":null,\"cache_timeout\":null,\"form_data\":null,\"query_context\":null,\"changed_by\":null,\"changed_by_name\":null,\"changed_on\":\"2025-07-30T15:48:20.814260\",\"changed_on_humanized\":null,\"created_by\":null,\"created_on\":\"2025-07-30T15:45:41.179562\",\"created_on_humanized\":null,\"uuid\":\"db9609e4-9b78-4a32-87a7-4d9e19d51cd8\",\"tags\":[],\"owners\":[]},{\"id\":160,\"slice_name\":\"Table Chart - product_line, sales\",\"viz_type\":\"table\",\"datasource_name\":\"main.cleaned_sales_data\",\"datasource_type\":null,\"url\":\"http://localhost:5008/screenshot/chart/160.png\",\"description\":null,\"cache_timeout\":null,\"form_data\":null,\"query_context\":null,\"changed_by\":null,\"changed_by_name\":null,\"changed_on\":\"2025-07-30T18:48:09.000545\",\"changed_on_humanized\":null,\"created_by\":null,\"created_on\":\"2025-07-30T18:48:05.216175\",\"created_on_humanized\":null,\"uuid\":\"39122e4f-333a-426b-bf60-c7cb30ee3428\",\"tags\":[],\"owners\":[]},{\"id\":161,\"slice_name\":\"Line Chart - order_date vs sales\",\"viz_type\":\"echarts_timeseries_line\",\"datasource_name\":\"main.cleaned_sales_data\",\"datasource_type\":null,\"url\":\"http://localhost:5008/screenshot/chart/161.png\",\"description\":null,\"cache_timeout\":null,\"form_data\":null,\"query_context\":null,\"changed_by\":null,\"changed_by_name\":null,\"changed_on\":\"2025-07-30T18:48:21.840864\",\"changed_on_humanized\":null,\"created_by\":null,\"created_on\":\"2025-07-30T18:48:20.968342\",\"created_on_humanized\":null,\"uuid\":\"47586816-89fb-46aa-8c66-7f3a5620a93f\",\"tags\":[],\"owners\":[]},{\"id\":162,\"slice_name\":\"Bar Chart - product_line vs sales\",\"viz_type\":\"echarts_timeseries_bar\",\"datasource_name\":\"main.cleaned_sales_data\",\"datasource_type\":null,\"url\":\"http://localhost:5008/screenshot/chart/162.png\",\"description\":null,\"cache_timeout\":null,\"form_data\":null,\"query_context\":null,\"changed_by\":null,\"changed_by_name\":null,\"changed_on\":\"2025-07-30T18:48:33.614776\",\"changed_on_humanized\":null,\"created_by\":null,\"created_on\":\"2025-07-30T18:48:32.856678\",\"created_on_humanized\":null,\"uuid\":\"11f4ba9d-b08f-49c1-a842-3d686296213a\",\"tags\":[],\"owners\":[]},{\"id\":163,\"slice_name\":\"Table Chart - country, sales\",\"viz_type\":\"table\",\"datasource_name\":\"main.cleaned_sales_data\",\"datasource_type\":null,\"url\":\"http://localhost:5008/screenshot/chart/163.png\",\"description\":null,\"cache_timeout\":null,\"form_data\":null,\"query_context\":null,\"changed_by\":null,\"changed_by_name\":null,\"changed_on\":\"2025-07-30T20:21:03.460337\",\"changed_on_humanized\":null,\"created_by\":null,\"created_on\":\"2025-07-30T20:21:03.460335\",\"created_on_humanized\":null,\"uuid\":\"04c6d659-3fd6-4447-a9eb-5b052f5fc94d\",\"tags\":[],\"owners\":[]}],\"count\":10,\"total_count\":43,\"page\":0,\"page_size\":10,\"total_pages\":5,\"has_previous\":false,\"has_next\":true,\"columns_requested\":[\"id\",\"slice_name\",\"viz_type\",\"datasource_name\",\"description\",\"changed_by_name\",\"created_by_name\",\"changed_on\",\"created_on\",\"uuid\"],\"columns_loaded\":[\"id\",\"slice_name\",\"viz_type\",\"datasource_name\",\"description\",\"changed_by_name\",\"created_by_name\",\"changed_on\",\"created_on\",\"uuid\"],\"filters_applied\":[],\"pagination\":{\"page\":0,\"page_size\":10,\"total_count\":43,\"total_pages\":5,\"has_next\":true,\"has_previous\":false},\"timestamp\":\"2025-08-01T02:05:42.122758Z\"}",
      "annotations": null,
      "meta": null
    }
  ],
  "structuredContent": {
    "charts": [
      {
        "id": 75,
        "slice_name": "Top 10 Games: Proportion of Sales in Markets",
        "viz_type": "echarts_timeseries_bar",
        "datasource_name": "video_game_sales",
        "datasource_type": null,
        "url": "http://localhost:5008/screenshot/chart/75.png",
        "description": null,
        "cache_timeout": null,
        "form_data": null,
        "query_context": null,
        "changed_by": null,
        "changed_by_name": null,
        "changed_on": "2025-07-30T15:48:20.782551",
        "changed_on_humanized": null,
        "created_by": null,
        "created_on": "2025-07-30T15:45:41.166249",
        "created_on_humanized": null,
        "uuid": "a40879d5-653a-42fe-9314-bbe88ad26e92",
        "tags": [],
        "owners": []
      },
      {
        "id": 76,
        "slice_name": "Total Sales per Market (Grouped by Genre)",
        "viz_type": "echarts_timeseries_bar",
        "datasource_name": "video_game_sales",
        "datasource_type": null,
        "url": "http://localhost:5008/screenshot/chart/76.png",
        "description": null,
        "cache_timeout": null,
        "form_data": null,
        "query_context": null,
        "changed_by": null,
        "changed_by_name": null,
        "changed_on": "2025-07-30T15:48:20.784016",
        "changed_on_humanized": null,
        "created_by": null,
        "created_on": "2025-07-30T15:45:41.167326",
        "created_on_humanized": null,
        "uuid": "d8bf948e-46fd-4380-9f9c-a950c34bcc92",
        "tags": [],
        "owners": []
      },
      {
        "id": 78,
        "slice_name": "# of Games That Hit 100k in Sales By Release Year",
        "viz_type": "treemap_v2",
        "datasource_name": "video_game_sales",
        "datasource_type": null,
        "url": "http://localhost:5008/screenshot/chart/78.png",
        "description": null,
        "cache_timeout": null,
        "form_data": null,
        "query_context": null,
        "changed_by": null,
        "changed_by_name": null,
        "changed_on": "2025-07-30T15:48:20.787316",
        "changed_on_humanized": null,
        "created_by": null,
        "created_on": "2025-07-30T15:45:41.169592",
        "created_on_humanized": null,
        "uuid": "2b69887b-23e3-b46d-d38c-8ea11856c555",
        "tags": [],
        "owners": []
      },
      {
        "id": 84,
        "slice_name": "Quarterly Sales",
        "viz_type": "echarts_timeseries_bar",
        "datasource_name": "cleaned_sales_data",
        "datasource_type": null,
        "url": "http://localhost:5008/screenshot/chart/84.png",
        "description": null,
        "cache_timeout": null,
        "form_data": null,
        "query_context": null,
        "changed_by": null,
        "changed_by_name": null,
        "changed_on": "2025-07-30T15:48:20.797210",
        "changed_on_humanized": null,
        "created_by": null,
        "created_on": "2025-07-30T15:45:41.176247",
        "created_on_humanized": null,
        "uuid": "692aca26-a526-85db-c94c-411c91cc1077",
        "tags": [],
        "owners": []
      },
      {
        "id": 91,
        "slice_name": "Overall Sales (By Product Line)",
        "viz_type": "pie",
        "datasource_name": "cleaned_sales_data",
        "datasource_type": null,
        "url": "http://localhost:5008/screenshot/chart/91.png",
        "description": null,
        "cache_timeout": null,
        "form_data": null,
        "query_context": null,
        "changed_by": null,
        "changed_by_name": null,
        "changed_on": "2025-07-30T15:48:20.812290",
        "changed_on_humanized": null,
        "created_by": null,
        "created_on": "2025-07-30T15:45:41.189889",
        "created_on_humanized": null,
        "uuid": "09c497e0-f442-1121-c9e7-671e37750424",
        "tags": [],
        "owners": []
      },
      {
        "id": 87,
        "slice_name": "Quarterly Sales (By Product Line)",
        "viz_type": "echarts_timeseries_bar",
        "datasource_name": "cleaned_sales_data",
        "datasource_type": null,
        "url": "http://localhost:5008/screenshot/chart/87.png",
        "description": null,
        "cache_timeout": null,
        "form_data": null,
        "query_context": null,
        "changed_by": null,
        "changed_by_name": null,
        "changed_on": "2025-07-30T15:48:20.814260",
        "changed_on_humanized": null,
        "created_by": null,
        "created_on": "2025-07-30T15:45:41.179562",
        "created_on_humanized": null,
        "uuid": "db9609e4-9b78-4a32-87a7-4d9e19d51cd8",
        "tags": [],
        "owners": []
      },
      {
        "id": 160,
        "slice_name": "Table Chart - product_line, sales",
        "viz_type": "table",
        "datasource_name": "main.cleaned_sales_data",
        "datasource_type": null,
        "url": "http://localhost:5008/screenshot/chart/160.png",
        "description": null,
        "cache_timeout": null,
        "form_data": null,
        "query_context": null,
        "changed_by": null,
        "changed_by_name": null,
        "changed_on": "2025-07-30T18:48:09.000545",
        "changed_on_humanized": null,
        "created_by": null,
        "created_on": "2025-07-30T18:48:05.216175",
        "created_on_humanized": null,
        "uuid": "39122e4f-333a-426b-bf60-c7cb30ee3428",
        "tags": [],
        "owners": []
      },
      {
        "id": 161,
        "slice_name": "Line Chart - order_date vs sales",
        "viz_type": "echarts_timeseries_line",
        "datasource_name": "main.cleaned_sales_data",
        "datasource_type": null,
        "url": "http://localhost:5008/screenshot/chart/161.png",
        "description": null,
        "cache_timeout": null,
        "form_data": null,
        "query_context": null,
        "changed_by": null,
        "changed_by_name": null,
        "changed_on": "2025-07-30T18:48:21.840864",
        "changed_on_humanized": null,
        "created_by": null,
        "created_on": "2025-07-30T18:48:20.968342",
        "created_on_humanized": null,
        "uuid": "47586816-89fb-46aa-8c66-7f3a5620a93f",
        "tags": [],
        "owners": []
      },
      {
        "id": 162,
        "slice_name": "Bar Chart - product_line vs sales",
        "viz_type": "echarts_timeseries_bar",
        "datasource_name": "main.cleaned_sales_data",
        "datasource_type": null,
        "url": "http://localhost:5008/screenshot/chart/162.png",
        "description": null,
        "cache_timeout": null,
        "form_data": null,
        "query_context": null,
        "changed_by": null,
        "changed_by_name": null,
        "changed_on": "2025-07-30T18:48:33.614776",
        "changed_on_humanized": null,
        "created_by": null,
        "created_on": "2025-07-30T18:48:32.856678",
        "created_on_humanized": null,
        "uuid": "11f4ba9d-b08f-49c1-a842-3d686296213a",
        "tags": [],
        "owners": []
      },
      {
        "id": 163,
        "slice_name": "Table Chart - country, sales",
        "viz_type": "table",
        "datasource_name": "main.cleaned_sales_data",
        "datasource_type": null,
        "url": "http://localhost:5008/screenshot/chart/163.png",
        "description": null,
        "cache_timeout": null,
        "form_data": null,
        "query_context": null,
        "changed_by": null,
        "changed_by_name": null,
        "changed_on": "2025-07-30T20:21:03.460337",
        "changed_on_humanized": null,
        "created_by": null,
        "created_on": "2025-07-30T20:21:03.460335",
        "created_on_humanized": null,
        "uuid": "04c6d659-3fd6-4447-a9eb-5b052f5fc94d",
        "tags": [],
        "owners": []
      }
    ],
    "count": 10,
    "total_count": 43,
    "page": 0,
    "page_size": 10,
    "total_pages": 5,
    "has_previous": false,
    "has_next": true,
    "columns_requested": [
      "id",
      "slice_name",
      "viz_type",
      "datasource_name",
      "description",
      "changed_by_name",
      "created_by_name",
      "changed_on",
      "created_on",
      "uuid"
    ],
    "columns_loaded": [
      "id",
      "slice_name",
      "viz_type",
      "datasource_name",
      "description",
      "changed_by_name",
      "created_by_name",
      "changed_on",
      "created_on",
      "uuid"
    ],
    "filters_applied": [],
    "pagination": {
      "page": 0,
      "page_size": 10,
      "total_count": 43,
      "total_pages": 5,
      "has_next": true,
      "has_previous": false
    },
    "timestamp": "2025-08-01T02:05:42.122758Z"
  },
  "isError": false
}
